Chapter 9 Data Wrangling | STAT462 Lab Book 2024
…
# This will select the 2nd row and ALL the columns 
frost[2,]

## # A tibble: 1 × 8
##   Station State Type_Fake Avg_DOY_SpringFrost Latitude Longitude Elevation
##   <chr>   <chr> <chr>                   <dbl>    <dbl>     <dbl>     <dbl>
## 1 Union   AL    City                     82.3     32.0     -85.8       440
## # ℹ 1 more variable: Dist_to_Coast <dbl>

# This will select the 3rd column and ALL the rows
frost[,3]

## # A tibble: 76 × 1
##    Type_Fake                    
##    <chr>                        
##  1 City                         
##  2 City                         
##  3 Airport                      
##  4 City                         
##  5 City                         
##  6 City                         
##  7 City                         
##  8 City                         
##  9 Agricultural_Research_Station
## 10 Agricultural_Research_Station
## # ℹ 66 more rows
…
For the data rows in each group, calculating the mean latitude, the maximum latitude and the minimum distance to the coast

Saving the result to a new variable called frost.summary.type.

Printing the results on the screen e.g. the furthest North/maximum latitude of rows tagged Agricultural_Research_Station is 36.32 degrees.

9.9 Sorting data

9.9.1 The dplyr arrange command (tidyverse)

We use the arrange() function to sort a data frame by one or more variables. You might want to do this to get a sense of which cases have the highest or lowest values in your data set or sort counties by their name. For example, let’s sort in ascending order by elevation.

arrange(frost, Latitude)

## # A tibble: 76 × 8
##    Station     State Type_Fake  Avg_DOY_SpringFrost Latitude Longitude Elevation
##    <chr>       <chr> <chr>                    <dbl>    <dbl>     <dbl>     <dbl>
##  1 Inverness   FL    City                      50.6     28.8     -82.3        40
##  2 Ocala       FL    City                      52.7     29.2     -82.1        75
##  3 Lake        FL    City                      60.6     30.2     -82.6       195
##  4 Tallahassee FL    Agricultu…                75.8     30.4     -84.4        55
##  5 Fernandina  FL    City                      46.9     30.7     -81.5        13
##  6 De          FL    City                      71.3     30.7     -86.1       245
##  7 Quitman     GA    City                      65.5     30.8     -83.6       185
##  8 Brunswick   GA    Agricultu…                48.4     31.2     -81.5        13
##  9 Waycross    GA    Agricultu…                75.9     31.2     -82.3       145
## 10 Tifton      GA    City                      87.3     31.4     -83.5       380
## # ℹ 66 more rows
## # ℹ 1 more variable: Dist_to_Coast <dbl>

By default, arrange() sorts in ascending order. We can sort by a variable in descending order by using the desc() function on the variable we want to sort by. For example, to sort the dataframe by Avg_DOY_SpringFrost in descending order we use

arrange(frost, desc(Avg_DOY_SpringFrost))

## # A tibble: 76 × 8
##    Station      State Type_Fake Avg_DOY_SpringFrost Latitude Longitude Elevation
##    <chr>        <chr> <chr>                   <dbl>    <dbl>     <dbl>     <dbl>
##  1 Marshall     NC    Airport                  118.     35.8     -82.7      2000
##  2 Highlands    NC    Agricult…                118.     35.0     -83.2      3333
##  3 Mt           NC    City                     113.     36.5     -80.6      1041
##  4 Louisburg    NC    City                     113.     36.1     -78.3       260
##  5 Rocky        VA    Airport                  111.     37.0     -79.9      1315
##  6 Henderson    NC    Agricult…                111.     36.3     -78.4       512
##  7 Farmville    VA    Airport                  111.     37.3     -78.4       450
##  8 Statesville  NC    City                     110.     35.8     -80.9       951
##  9 Valley       AL    City                     110.     34.6     -85.6      1020
## 10 Hendersonvi… NC    Agricult…                110.     35.3     -82.4      2160
## # ℹ 66 more rows
## # ℹ 1 more variable: Dist_to_Coast <dbl>
…
